<?xml version="1.0" encoding="UTF-8" standalone="no"?>
<!-- Created with Inkscape (http://www.inkscape.org/) -->

<svg
   xmlns:dc="http://purl.org/dc/elements/1.1/"
   xmlns:cc="http://creativecommons.org/ns#"
   xmlns:rdf="http://www.w3.org/1999/02/22-rdf-syntax-ns#"
   xmlns:svg="http://www.w3.org/2000/svg"
   xmlns="http://www.w3.org/2000/svg"
   xmlns:sodipodi="http://sodipodi.sourceforge.net/DTD/sodipodi-0.dtd"
   xmlns:inkscape="http://www.inkscape.org/namespaces/inkscape"
   width="210mm"
   height="297mm"
   viewBox="0 0 210 297"
   version="1.1"
   id="svg932"
   inkscape:version="0.92.3 (2405546, 2018-03-11)"
   sodipodi:docname="LabOrgA11_01.svg"
   inkscape:export-filename="/home/simoes/Documents/Eletronica/LabOrgA11_01.png"
   inkscape:export-xdpi="96"
   inkscape:export-ydpi="96">
  <defs
     id="defs926" />
  <sodipodi:namedview
     id="base"
     pagecolor="#ffffff"
     bordercolor="#666666"
     borderopacity="1.0"
     inkscape:pageopacity="0.0"
     inkscape:pageshadow="2"
     inkscape:zoom="0.98994949"
     inkscape:cx="395.38526"
     inkscape:cy="832.30906"
     inkscape:document-units="mm"
     inkscape:current-layer="layer1"
     showgrid="false"
     inkscape:window-width="1366"
     inkscape:window-height="741"
     inkscape:window-x="0"
     inkscape:window-y="27"
     inkscape:window-maximized="1" />
  <metadata
     id="metadata929">
    <rdf:RDF>
      <cc:Work
         rdf:about="">
        <dc:format>image/svg+xml</dc:format>
        <dc:type
           rdf:resource="http://purl.org/dc/dcmitype/StillImage" />
        <dc:title />
      </cc:Work>
    </rdf:RDF>
  </metadata>
  <g
     inkscape:label="Layer 1"
     inkscape:groupmode="layer"
     id="layer1">
    <path
       style="fill:none;stroke:#000000;stroke-width:0.26458332px;stroke-linecap:butt;stroke-linejoin:miter;stroke-opacity:1"
       d="m 152.17307,105.49432 c 0.0839,0.33559 0.0378,0.18015 0.13363,0.46772 0.0446,0.13363 0.0995,0.26424 0.13364,0.4009 0.005,0.0216 -0.007,0.0457 0,0.0668 1.6e-4,5.3e-4 0.0827,0.20046 0.13363,0.20046 0.0215,0 0.0965,-0.11507 0.13364,-0.13364 0.0713,-0.0356 0.0893,0.0661 0.13363,-0.0668 0.0141,-0.0423 -0.0141,-0.0914 0,-0.13363 0.01,-0.0299 0.0445,-0.0445 0.0668,-0.0668 0,-0.0668 -0.0162,-0.13563 0,-0.20046 0.008,-0.0306 0.0568,-0.0369 0.0668,-0.0668 0.0141,-0.0423 -0.009,-0.09 0,-0.13363 -0.0153,-0.13418 0.10454,-0.21773 0.13363,-0.33409 0.0132,-0.0526 0,-0.33142 0,-0.4009 0,-0.0223 -0.007,-0.0457 0,-0.0668 0.0157,-0.0472 0.0446,-0.0891 0.0668,-0.13364"
       id="path5223"
       inkscape:connector-curvature="0" />
    <path
       style="fill:none;stroke:#000000;stroke-width:0.26458332px;stroke-linecap:butt;stroke-linejoin:miter;stroke-opacity:1"
       d="m 154.64531,105.02659 c -0.29927,-0.14131 -0.25725,0.19545 -0.4009,0.26728 -0.0199,0.01 -0.0483,-0.0124 -0.0668,0 -0.0524,0.0349 -0.0891,0.0891 -0.13364,0.13363 -0.0668,0.0668 -0.13363,0.13364 -0.20045,0.20045 -0.0223,0.0223 -0.0494,0.0406 -0.0668,0.0668 -0.0276,0.0414 -0.0445,0.0891 -0.0668,0.13364 -0.0223,0.0445 -0.0511,0.0864 -0.0668,0.13363 -0.007,0.0211 0.007,0.0457 0,0.0668 -0.009,0.0278 -0.097,0.14007 -0.0668,0.20045 0.0135,0.027 0.26527,0.26527 0.26727,0.26727 0.0891,0.0891 0.17818,0.17818 0.26727,0.26727 0.0223,0.0223 0.0406,0.0494 0.0668,0.0668 0.11752,0.0784 0.19826,0.0793 0.33409,0.13364 0.17817,0.0713 0.11248,0.0893 0.33408,0.13363 0.0437,0.009 0.0904,-0.0108 0.13364,0 0.0483,0.0121 0.0864,0.0511 0.13363,0.0668 0.0391,0.013 0.46028,0 0.53454,0"
       id="path5225"
       inkscape:connector-curvature="0" />
    <path
       style="fill:none;stroke:#000000;stroke-width:0.26458332px;stroke-linecap:butt;stroke-linejoin:miter;stroke-opacity:1"
       d="m 157.38482,105.09341 c 0.0162,0.85735 -0.36433,0.11535 -0.53454,0.20046 -0.0357,0.0178 -0.16527,0.16527 -0.20045,0.20045 -0.0223,0.0223 -0.0445,0.0445 -0.0668,0.0668 -0.0223,0.0223 -0.0527,0.0386 -0.0668,0.0668 -0.0162,0.0325 0,0.44769 0,0.53453 0,0.0533 -0.0134,0.294 0,0.33409 0.0157,0.0472 0.0392,0.0922 0.0668,0.13364 0.0183,0.0275 0.173,0.18215 0.20046,0.20045 0.0414,0.0276 0.0864,0.0511 0.13363,0.0668 0.0211,0.007 0.0469,-0.01 0.0668,0 0.3058,0.1529 -0.28354,-0.0277 0.20045,0.13363 0.0423,0.0141 0.0938,-0.0199 0.13364,0 0.30579,0.1529 -0.28354,-0.0277 0.20045,0.13364 0.0211,0.007 0.0452,-0.005 0.0668,0 0.0683,0.0171 0.13139,0.053 0.20046,0.0668 0.0753,0.0151 0.18686,0 0.26727,0 0.0301,0 0.18011,0.0102 0.20045,0 0.0282,-0.0141 0.0386,-0.0527 0.0668,-0.0668 0.19663,-0.0983 -0.088,0.15478 0.13363,-0.0668"
       id="path5227"
       inkscape:connector-curvature="0" />
    <text
       xml:space="preserve"
       style="font-style:normal;font-weight:normal;font-size:4.23333311px;line-height:1.25;font-family:sans-serif;letter-spacing:0px;word-spacing:0px;fill:#000000;fill-opacity:1;stroke:none;stroke-width:0.26458332"
       x="27.415848"
       y="57.521267"
       id="text752"><tspan
         sodipodi:role="line"
         id="tspan750"
         x="27.415848"
         y="57.521267"
         style="stroke-width:0.26458332">Fetch     Dec(address_calculation)     Data_Fetch      Execute      Data_Write</tspan></text>
    <text
       xml:space="preserve"
       style="font-style:normal;font-weight:normal;font-size:4.23333311px;line-height:1.25;font-family:sans-serif;letter-spacing:0px;word-spacing:0px;fill:#000000;fill-opacity:1;stroke:none;stroke-width:0.26458332"
       x="27.982811"
       y="42.213223"
       id="text756"><tspan
         sodipodi:role="line"
         id="tspan754"
         x="27.982811"
         y="42.213223"
         style="stroke-width:0.26458332">Program     Program                           Data                                   Data</tspan><tspan
         sodipodi:role="line"
         x="27.982811"
         y="47.504887"
         style="stroke-width:0.26458332"
         id="tspan758">Memory      Memory                           Memory                              Memory</tspan></text>
    <text
       xml:space="preserve"
       style="font-style:normal;font-weight:normal;font-size:4.23333311px;line-height:1.25;font-family:sans-serif;letter-spacing:0px;word-spacing:0px;fill:#000000;fill-opacity:1;stroke:none;stroke-width:0.26458332"
       x="33.085487"
       y="51.851612"
       id="text762"><tspan
         sodipodi:role="line"
         id="tspan760"
         x="33.085487"
         y="51.851612"
         style="stroke-width:0.26458332">PC(t)          PC(t-1)                            MAR1(t-2)                              MAR(t-4)</tspan></text>
    <text
       xml:space="preserve"
       style="font-style:normal;font-weight:normal;font-size:4.23333311px;line-height:1.25;font-family:sans-serif;letter-spacing:0px;word-spacing:0px;fill:#000000;fill-opacity:1;stroke:none;stroke-width:0.26458332"
       x="28.549782"
       y="69.805473"
       id="text766"><tspan
         sodipodi:role="line"
         id="tspan764"
         x="28.549782"
         y="69.805473"
         style="stroke-width:0.26458332">PC(0)</tspan><tspan
         sodipodi:role="line"
         x="28.549782"
         y="75.097145"
         style="stroke-width:0.26458332"
         id="tspan770">PC+2                 PC+1</tspan><tspan
         sodipodi:role="line"
         x="28.549782"
         y="80.388802"
         style="stroke-width:0.26458332"
         id="tspan808">PC+4                 PC+3                             MAR1(A)</tspan><tspan
         sodipodi:role="line"
         x="28.549782"
         y="85.680473"
         style="stroke-width:0.26458332"
         id="tspan804">PC+6                 PC+5                             MAR1(B)           xx xx xx </tspan><tspan
         sodipodi:role="line"
         x="28.549782"
         y="90.972145"
         style="stroke-width:0.26458332"
         id="tspan825">PC+8                 PC+7                             xxxxxxxx       xxxxxxxxx      MAR2(B)</tspan><tspan
         sodipodi:role="line"
         x="28.549782"
         y="96.263802"
         style="stroke-width:0.26458332"
         id="tspan827">PC+10               PC+9                             xxxxxxxx        Rz&lt;-RX+RY    xxxxxxxx</tspan><tspan
         sodipodi:role="line"
         x="28.549782"
         y="101.55547"
         style="stroke-width:0.26458332"
         id="tspan821" /><tspan
         sodipodi:role="line"
         x="28.549782"
         y="106.84715"
         style="stroke-width:0.26458332"
         id="tspan768" /></text>
    <text
       xml:space="preserve"
       style="font-style:normal;font-weight:normal;font-size:4.23333311px;line-height:1.25;font-family:sans-serif;letter-spacing:0px;word-spacing:0px;fill:#000000;fill-opacity:1;stroke:none;stroke-width:0.26458332"
       x="4.1087179"
       y="69.34922"
       id="text774"><tspan
         sodipodi:role="line"
         id="tspan772"
         x="4.1087179"
         y="69.34922"
         style="stroke-width:0.26458332">1 Load</tspan><tspan
         sodipodi:role="line"
         x="4.1087179"
         y="74.640892"
         style="stroke-width:0.26458332"
         id="tspan776">2 Store</tspan><tspan
         sodipodi:role="line"
         x="4.1087179"
         y="79.932549"
         style="stroke-width:0.26458332"
         id="tspan778">3 Add</tspan><tspan
         sodipodi:role="line"
         x="4.1087179"
         y="85.22422"
         style="stroke-width:0.26458332"
         id="tspan780">4 Load</tspan><tspan
         sodipodi:role="line"
         x="4.1087179"
         y="90.515892"
         style="stroke-width:0.26458332"
         id="tspan782">5</tspan><tspan
         sodipodi:role="line"
         x="4.1087179"
         y="95.807549"
         style="stroke-width:0.26458332"
         id="tspan784">6</tspan></text>
    <text
       xml:space="preserve"
       style="font-style:normal;font-weight:normal;font-size:4.23333311px;line-height:1.25;font-family:sans-serif;letter-spacing:0px;word-spacing:0px;fill:#000000;fill-opacity:1;stroke:none;stroke-width:0.26458332"
       x="3.0363944"
       y="132.54953"
       id="text788"><tspan
         sodipodi:role="line"
         id="tspan786"
         x="3.0363944"
         y="132.54953"
         style="stroke-width:0.26458332">0   ADD ENDA EndB EndC   </tspan><tspan
         sodipodi:role="line"
         x="3.0363944"
         y="137.84119"
         style="stroke-width:0.26458332"
         id="tspan790">1   EndA</tspan><tspan
         sodipodi:role="line"
         x="3.0363944"
         y="143.13286"
         style="stroke-width:0.26458332"
         id="tspan792">2   store rx</tspan><tspan
         sodipodi:role="line"
         x="3.0363944"
         y="148.42453"
         style="stroke-width:0.26458332"
         id="tspan794">3   EndB</tspan><tspan
         sodipodi:role="line"
         x="3.0363944"
         y="153.71619"
         style="stroke-width:0.26458332"
         id="tspan806">4   Add rx ry</tspan><tspan
         sodipodi:role="line"
         x="3.0363944"
         y="159.00786"
         style="stroke-width:0.26458332"
         id="tspan814">5   Void</tspan><tspan
         sodipodi:role="line"
         x="3.0363944"
         y="164.29953"
         style="stroke-width:0.26458332"
         id="tspan816">6   Load rx</tspan><tspan
         sodipodi:role="line"
         x="3.0363944"
         y="169.59119"
         style="stroke-width:0.26458332"
         id="tspan829">7   ENDC</tspan><tspan
         sodipodi:role="line"
         x="3.0363944"
         y="174.88286"
         style="stroke-width:0.26458332"
         id="tspan818" /></text>
    <text
       xml:space="preserve"
       style="font-style:normal;font-weight:normal;font-size:4.23333311px;line-height:1.25;font-family:sans-serif;letter-spacing:0px;word-spacing:0px;fill:#000000;fill-opacity:1;stroke:none;stroke-width:0.26458332"
       x="50.209732"
       y="19.567173"
       id="text833"><tspan
         sodipodi:role="line"
         x="50.209732"
         y="19.567173"
         style="stroke-width:0.26458332"
         id="tspan839">MAR2 &lt;-MAR1</tspan><tspan
         sodipodi:role="line"
         x="50.209732"
         y="24.858837"
         style="stroke-width:0.26458332"
         id="tspan837">MAR1 &lt;-END</tspan><tspan
         sodipodi:role="line"
         x="50.209732"
         y="30.150509"
         style="stroke-width:0.26458332"
         id="tspan835" /></text>
    <text
       xml:space="preserve"
       style="font-style:normal;font-weight:normal;font-size:4.23333311px;line-height:1.25;font-family:sans-serif;letter-spacing:0px;word-spacing:0px;fill:#000000;fill-opacity:1;stroke:none;stroke-width:0.26458332"
       x="3.6090879"
       y="191.73708"
       id="text843"><tspan
         sodipodi:role="line"
         id="tspan841"
         x="3.6090879"
         y="191.73708"
         style="stroke-width:0.26458332">Load R0 EndB</tspan><tspan
         sodipodi:role="line"
         x="3.6090879"
         y="197.02875"
         style="stroke-width:0.26458332"
         id="tspan845">Load R1 EndC</tspan><tspan
         sodipodi:role="line"
         x="3.6090879"
         y="202.32042"
         style="stroke-width:0.26458332"
         id="tspan847">ADD R2 R0 R1</tspan><tspan
         sodipodi:role="line"
         x="3.6090879"
         y="207.61208"
         style="stroke-width:0.26458332"
         id="tspan849">Store R2 EndA</tspan></text>
    <text
       xml:space="preserve"
       style="font-style:normal;font-weight:normal;font-size:4.23333311px;line-height:1.25;font-family:sans-serif;letter-spacing:0px;word-spacing:0px;fill:#000000;fill-opacity:1;stroke:none;stroke-width:0.26458332"
       x="99.439926"
       y="126.11195"
       id="text853"><tspan
         sodipodi:role="line"
         id="tspan851"
         x="99.439926"
         y="126.11195"
         style="stroke-width:0.26458332">Busca1 </tspan><tspan
         sodipodi:role="line"
         x="99.439926"
         y="131.40361"
         style="stroke-width:0.26458332"
         id="tspan855">         Busca2    executa 1</tspan><tspan
         sodipodi:role="line"
         x="99.439926"
         y="136.69528"
         style="stroke-width:0.26458332"
         id="tspan857">                          Busca3      executa2</tspan><tspan
         sodipodi:role="line"
         x="99.439926"
         y="141.98694"
         style="stroke-width:0.26458332"
         id="tspan859">                                            Busca4       executa3</tspan></text>
  </g>
</svg>
